Analysis of Racial and Ethnic Disparities in Gynecological Studies – Project Title
…
Introduction

Data and Purpose

TidyTuesday contains a repository of reproductive journals, each with values of the counts for racial and ethnic categories.

Data is taken from 2010-2023

With a background as a software engineer in the healthcare industry, I was interested to see how this data would change over time.

Description of Data

Viewed below, the data is contained of 318 research articles, each with 61 features. Features contain basic journal information such as the journal, article name, year of publication, and the racial makeup of the article.

# A tibble: 318 × 65
       pmid doi         jabbrv journal  year month day   title abstract keywords
      <dbl> <chr>       <chr>  <chr>   <dbl> <chr> <chr> <chr> <chr>    <chr>   
 1 31764726 10.1097/AO… Obste… Obstet…  2020 04    03    Desi… To eval… Adult; …
 2 31492539 10.1016/j.… Gynec… Gyneco…  2019 11    05    Medi… To comp… Health …
 3 30890269 10.1016/j.… Gynec… Gyneco…  2019 07    05    Iden… Germlin… Adult; …
 4 29605049 10.1016/j.… Gynec… Gyneco…  2018 07    10    Expl… To eval… High vo…
 5 28800945 10.1016/j.… Gynec… Gyneco…  2018 07    10    Impa… Althoug… Age; Di…
 6 27697287 10.1016/j.… Gynec… Gyneco…  2017 05    29    The … Enrollm… Clinica…
 7 27103178 10.1016/j.… Gynec… Gyneco…  2017 05    01    Surg… To eval… Delayed…
 8 28159409 10.1016/j.… Gynec… Gyneco…  2017 05    25    Disp… To exam… Adenoca…
 9 26706661 10.1016/j.… Gynec… Gyneco…  2016 06    01    Dyin… To iden… Advance…
10 26325527 10.1016/j.… Gynec… Gyneco…  2016 01    07    Asse… Sexual … Depress…
# ℹ 308 more rows
# ℹ 55 more variables: study_aim <chr>, study_location <chr>,
#   study_year_start <dbl>, study_year_end <dbl>, study_type <chr>,
#   data_source <chr>, race1 <chr>, race1_ss <dbl>, race2 <chr>,
#   race2_ss <dbl>, race3 <chr>, race3_ss <dbl>, race4 <chr>, race4_ss <dbl>,
#   race5 <chr>, race5_ss <dbl>, race6 <chr>, race6_ss <dbl>, race7 <chr>,
#   race7_ss <dbl>, race8 <chr>, race8_ss <dbl>, eth1 <chr>, eth1_ss <dbl>, …
…
